<svg width="219" height="60" viewBox="0 0 219 60" fill="none" xmlns="http://www.w3.org/2000/svg">
<path d="M15.12 10.12V17.02H28.62V25.96H15.12V33.58H30.42V43H3.36V0.699991H30.42V10.12H15.12Z" fill="#3C6F71"/>
<path d="M69.8911 8.97999V19.6H35.5111V8.97999H69.8911ZM69.8911 25.06V35.62H35.5111V25.06H69.8911Z" fill="#3C6F71"/>
<path d="M125.279 0.699991V43H113.519V19.66L105.539 43H95.6991L87.6591 19.48V43H75.8991V0.699991H90.1191L100.739 28.18L111.119 0.699991H125.279Z" fill="#3C6F71"/>
<path d="M130.533 21.76C130.533 17.6 131.393 13.9 133.113 10.66C134.873 7.37999 137.353 4.83999 140.553 3.03999C143.753 1.19999 147.433 0.279993 151.593 0.279993C156.873 0.279993 161.313 1.69999 164.913 4.53999C168.513 7.33999 170.833 11.16 171.873 16H159.213C158.453 14.4 157.393 13.18 156.033 12.34C154.713 11.5 153.173 11.08 151.413 11.08C148.693 11.08 146.513 12.06 144.873 14.02C143.273 15.94 142.473 18.52 142.473 21.76C142.473 25.04 143.273 27.66 144.873 29.62C146.513 31.54 148.693 32.5 151.413 32.5C153.173 32.5 154.713 32.08 156.033 31.24C157.393 30.4 158.453 29.18 159.213 27.58H171.873C170.833 32.42 168.513 36.26 164.913 39.1C161.313 41.9 156.873 43.3 151.593 43.3C147.433 43.3 143.753 42.4 140.553 40.6C137.353 38.76 134.873 36.22 133.113 32.98C131.393 29.7 130.533 25.96 130.533 21.76Z" fill="#3C6F71"/>
<path d="M186.022 15.1H196.342V21.88H176.722V15.34L184.402 11.02C186.482 9.85999 187.522 8.61999 187.522 7.29999C187.522 6.61999 187.162 6.27999 186.442 6.27999C185.602 6.27999 185.142 6.97999 185.062 8.37999H176.302C176.462 5.89999 177.522 3.89999 179.482 2.37999C181.482 0.819993 184.162 0.0399933 187.522 0.0399933C190.602 0.0399933 192.902 0.699993 194.422 2.01999C195.982 3.33999 196.762 4.87999 196.762 6.63999C196.762 8.03999 196.162 9.27999 194.962 10.36C193.762 11.44 191.782 12.58 189.022 13.78L186.022 15.1Z" fill="#3C6F71"/>
<path d="M2.52 52.52V53.67H4.77V55.16H2.52V56.43H5.07V58H0.559998V50.95H5.07V52.52H2.52Z" fill="#3C6F71"/>
<path d="M12.2826 53.72V55.35H7.75258V53.72H12.2826Z" fill="#3C6F71"/>
<path d="M23.8779 50.95V58H21.9179V54.11L20.5879 58H18.9479L17.6079 54.08V58H15.6479V50.95H18.0179L19.7879 55.53L21.5179 50.95H23.8779Z" fill="#3C6F71"/>
<path d="M26.9536 52.52V53.67H29.2036V55.16H26.9536V56.43H29.5036V58H24.9936V50.95H29.5036V52.52H26.9536Z" fill="#3C6F71"/>
<path d="M33.2621 50.95C34.0021 50.95 34.6488 51.1 35.2021 51.4C35.7621 51.6933 36.1921 52.1067 36.4921 52.64C36.7921 53.1733 36.9421 53.7833 36.9421 54.47C36.9421 55.15 36.7888 55.7567 36.4821 56.29C36.1821 56.8233 35.7521 57.2433 35.1921 57.55C34.6388 57.85 33.9954 58 33.2621 58H30.4721V50.95H33.2621ZM33.1121 56.27C33.6854 56.27 34.1354 56.1133 34.4621 55.8C34.7888 55.4867 34.9521 55.0433 34.9521 54.47C34.9521 53.89 34.7888 53.4433 34.4621 53.13C34.1354 52.81 33.6854 52.65 33.1121 52.65H32.4321V56.27H33.1121Z" fill="#3C6F71"/>
<path d="M39.7856 50.95V58H37.8256V50.95H39.7856Z" fill="#3C6F71"/>
<path d="M45.3618 56.85H42.8618L42.4818 58H40.4218L42.9918 50.95H45.2518L47.8118 58H45.7418L45.3618 56.85ZM44.8718 55.35L44.1118 53.07L43.3618 55.35H44.8718Z" fill="#3C6F71"/>
<path d="M53.7606 50.95V52.51H51.8806V58H49.9206V52.51H48.0606V50.95H53.7606Z" fill="#3C6F71"/>
<path d="M60.7958 50.95V58H58.8358V55.17H56.4458V58H54.4858V50.95H56.4458V53.6H58.8358V50.95H60.7958Z" fill="#3C6F71"/>
<path d="M63.8774 52.52V53.67H66.1274V55.16H63.8774V56.43H66.4274V58H61.9174V50.95H66.4274V52.52H63.8774Z" fill="#3C6F71"/>
<path d="M72.2259 59.18L71.4459 58.01C71.2259 58.05 71.0026 58.07 70.7759 58.07C70.1159 58.07 69.5093 57.9167 68.9559 57.61C68.4026 57.2967 67.9626 56.8667 67.6359 56.32C67.3159 55.7667 67.1559 55.1433 67.1559 54.45C67.1559 53.7567 67.3159 53.1367 67.6359 52.59C67.9626 52.0367 68.4026 51.6067 68.9559 51.3C69.5093 50.9933 70.1159 50.84 70.7759 50.84C71.4426 50.84 72.0493 50.9933 72.5959 51.3C73.1493 51.6067 73.5859 52.0367 73.9059 52.59C74.2259 53.1367 74.3859 53.7567 74.3859 54.45C74.3859 55.03 74.2693 55.5667 74.0359 56.06C73.8026 56.5467 73.4826 56.9533 73.0759 57.28L74.5659 59.18H72.2259ZM69.1559 54.45C69.1559 55.0033 69.2993 55.4433 69.5859 55.77C69.8726 56.09 70.2693 56.25 70.7759 56.25C71.2759 56.25 71.6693 56.0867 71.9559 55.76C72.2493 55.4333 72.3959 54.9967 72.3959 54.45C72.3959 53.89 72.2493 53.45 71.9559 53.13C71.6693 52.8033 71.2759 52.64 70.7759 52.64C70.2693 52.64 69.8726 52.8033 69.5859 53.13C69.2993 53.45 69.1559 53.89 69.1559 54.45Z" fill="#3C6F71"/>
<path d="M77.1968 50.95V55.04C77.1968 55.42 77.2835 55.7133 77.4568 55.92C77.6368 56.1267 77.9068 56.23 78.2668 56.23C78.6268 56.23 78.8968 56.1267 79.0768 55.92C79.2635 55.7067 79.3568 55.4133 79.3568 55.04V50.95H81.3168V55.04C81.3168 55.6867 81.1801 56.24 80.9068 56.7C80.6335 57.1533 80.2601 57.4967 79.7868 57.73C79.3201 57.9567 78.8001 58.07 78.2268 58.07C77.6535 58.07 77.1401 57.9567 76.6868 57.73C76.2401 57.4967 75.8868 57.1533 75.6268 56.7C75.3735 56.2467 75.2468 55.6933 75.2468 55.04V50.95H77.1968Z" fill="#3C6F71"/>
<path d="M84.3559 52.52V53.67H86.6059V55.16H84.3559V56.43H86.9059V58H82.3959V50.95H86.9059V52.52H84.3559Z" fill="#3C6F71"/>
<path d="M91.7485 56.5H93.9385V58H89.7885V50.95H91.7485V56.5Z" fill="#3C6F71"/>
<path d="M99.1606 56.85H96.6606L96.2806 58H94.2206L96.7906 50.95H99.0506L101.611 58H99.5406L99.1606 56.85ZM98.6706 55.35L97.9106 53.07L97.1606 55.35H98.6706Z" fill="#3C6F71"/>
<path d="M103.924 54.46C103.924 53.7667 104.067 53.15 104.354 52.61C104.647 52.0633 105.06 51.64 105.594 51.34C106.127 51.0333 106.74 50.88 107.434 50.88C108.314 50.88 109.054 51.1167 109.654 51.59C110.254 52.0567 110.64 52.6933 110.814 53.5H108.704C108.577 53.2333 108.4 53.03 108.174 52.89C107.954 52.75 107.697 52.68 107.404 52.68C106.95 52.68 106.587 52.8433 106.314 53.17C106.047 53.49 105.914 53.92 105.914 54.46C105.914 55.0067 106.047 55.4433 106.314 55.77C106.587 56.09 106.95 56.25 107.404 56.25C107.697 56.25 107.954 56.18 108.174 56.04C108.4 55.9 108.577 55.6967 108.704 55.43H110.814C110.64 56.2367 110.254 56.8767 109.654 57.35C109.054 57.8167 108.314 58.05 107.434 58.05C106.74 58.05 106.127 57.9 105.594 57.6C105.06 57.2933 104.647 56.87 104.354 56.33C104.067 55.7833 103.924 55.16 103.924 54.46Z" fill="#3C6F71"/>
<path d="M118.052 50.95V58H116.092V55.17H113.702V58H111.742V50.95H113.702V53.6H116.092V50.95H118.052Z" fill="#3C6F71"/>
<path d="M123.633 56.85H121.133L120.753 58H118.693L121.263 50.95H123.523L126.083 58H124.013L123.633 56.85ZM123.143 55.35L122.383 53.07L121.633 55.35H123.143Z" fill="#3C6F71"/>
<path d="M132.292 53.3C132.292 53.7267 132.192 54.1167 131.992 54.47C131.799 54.8167 131.502 55.0967 131.102 55.31C130.709 55.5167 130.225 55.62 129.652 55.62H128.682V58H126.722V50.95H129.652C130.219 50.95 130.699 51.05 131.092 51.25C131.492 51.45 131.792 51.7267 131.992 52.08C132.192 52.4333 132.292 52.84 132.292 53.3ZM129.462 54.06C130.015 54.06 130.292 53.8067 130.292 53.3C130.292 52.7867 130.015 52.53 129.462 52.53H128.682V54.06H129.462Z" fill="#3C6F71"/>
<path d="M135.04 52.52V53.67H137.29V55.16H135.04V56.43H137.59V58H133.08V50.95H137.59V52.52H135.04Z" fill="#3C6F71"/>
<path d="M140.518 56.5H142.708V58H138.558V50.95H140.518V56.5Z" fill="#3C6F71"/>
<path d="M145.43 56.5H147.62V58H143.47V50.95H145.43V56.5Z" fill="#3C6F71"/>
<path d="M150.342 52.52V53.67H152.592V55.16H150.342V56.43H152.892V58H148.382V50.95H152.892V52.52H150.342Z" fill="#3C6F71"/>
<path d="M160.105 53.72V55.35H155.575V53.72H160.105Z" fill="#3C6F71"/>
<path d="M163.23 54.46C163.23 53.7667 163.373 53.15 163.66 52.61C163.953 52.0633 164.367 51.64 164.9 51.34C165.433 51.0333 166.047 50.88 166.74 50.88C167.62 50.88 168.36 51.1167 168.96 51.59C169.56 52.0567 169.947 52.6933 170.12 53.5H168.01C167.883 53.2333 167.707 53.03 167.48 52.89C167.26 52.75 167.003 52.68 166.71 52.68C166.257 52.68 165.893 52.8433 165.62 53.17C165.353 53.49 165.22 53.92 165.22 54.46C165.22 55.0067 165.353 55.4433 165.62 55.77C165.893 56.09 166.257 56.25 166.71 56.25C167.003 56.25 167.26 56.18 167.48 56.04C167.707 55.9 167.883 55.6967 168.01 55.43H170.12C169.947 56.2367 169.56 56.8767 168.96 57.35C168.36 57.8167 167.62 58.05 166.74 58.05C166.047 58.05 165.433 57.9 164.9 57.6C164.367 57.2933 163.953 56.87 163.66 56.33C163.373 55.7833 163.23 55.16 163.23 54.46Z" fill="#3C6F71"/>
<path d="M172.968 50.95V55.04C172.968 55.42 173.055 55.7133 173.228 55.92C173.408 56.1267 173.678 56.23 174.038 56.23C174.398 56.23 174.668 56.1267 174.848 55.92C175.035 55.7067 175.128 55.4133 175.128 55.04V50.95H177.088V55.04C177.088 55.6867 176.952 56.24 176.678 56.7C176.405 57.1533 176.032 57.4967 175.558 57.73C175.092 57.9567 174.572 58.07 173.998 58.07C173.425 58.07 172.912 57.9567 172.458 57.73C172.012 57.4967 171.658 57.1533 171.398 56.7C171.145 56.2467 171.018 55.6933 171.018 55.04V50.95H172.968Z" fill="#3C6F71"/>
<path d="M181.737 58L180.337 55.4H180.127V58H178.167V50.95H181.257C181.824 50.95 182.304 51.05 182.697 51.25C183.091 51.4433 183.387 51.7133 183.587 52.06C183.787 52.4 183.887 52.7833 183.887 53.21C183.887 53.69 183.754 54.1133 183.487 54.48C183.227 54.84 182.844 55.0967 182.337 55.25L183.927 58H181.737ZM180.127 54.06H181.097C181.364 54.06 181.564 53.9967 181.697 53.87C181.831 53.7433 181.897 53.56 181.897 53.32C181.897 53.0933 181.827 52.9167 181.687 52.79C181.554 52.6567 181.357 52.59 181.097 52.59H180.127V54.06Z" fill="#3C6F71"/>
<path d="M188.349 58L186.949 55.4H186.739V58H184.779V50.95H187.869C188.435 50.95 188.915 51.05 189.309 51.25C189.702 51.4433 189.999 51.7133 190.199 52.06C190.399 52.4 190.499 52.7833 190.499 53.21C190.499 53.69 190.365 54.1133 190.099 54.48C189.839 54.84 189.455 55.0967 188.949 55.25L190.539 58H188.349ZM186.739 54.06H187.709C187.975 54.06 188.175 53.9967 188.309 53.87C188.442 53.7433 188.509 53.56 188.509 53.32C188.509 53.0933 188.439 52.9167 188.299 52.79C188.165 52.6567 187.969 52.59 187.709 52.59H186.739V54.06Z" fill="#3C6F71"/>
<path d="M193.35 52.52V53.67H195.6V55.16H193.35V56.43H195.9V58H191.39V50.95H195.9V52.52H193.35Z" fill="#3C6F71"/>
<path d="M201.329 56.85H198.829L198.449 58H196.389L198.959 50.95H201.219L203.779 58H201.709L201.329 56.85ZM200.839 55.35L200.079 53.07L199.329 55.35H200.839Z" fill="#3C6F71"/>
<path d="M206.337 50.95V55.04C206.337 55.42 206.424 55.7133 206.597 55.92C206.777 56.1267 207.047 56.23 207.407 56.23C207.767 56.23 208.037 56.1267 208.217 55.92C208.404 55.7067 208.497 55.4133 208.497 55.04V50.95H210.457V55.04C210.457 55.6867 210.321 56.24 210.047 56.7C209.774 57.1533 209.401 57.4967 208.927 57.73C208.461 57.9567 207.941 58.07 207.367 58.07C206.794 58.07 206.281 57.9567 205.827 57.73C205.381 57.4967 205.027 57.1533 204.767 56.7C204.514 56.2467 204.387 55.6933 204.387 55.04V50.95H206.337Z" fill="#3C6F71"/>
<path d="M215.947 58L214.577 56.01L213.407 58H211.177L213.467 54.39L211.097 50.95H213.407L214.737 52.89L215.877 50.95H218.107L215.847 54.5L218.257 58H215.947Z" fill="#3C6F71"/>
</svg>
